{
    "defaultSeverity": "error",
    "extends": [
        "tslint:recommended"
    ],
    "jsRules": {},
    "rules": {
        "quotemark": false,
        "arrow-parens": false,
        "object-literal-sort-keys": false,
        "one-variable-per-declaration": false
    },
    "rulesDirectory": []
}